[gd_scene load_steps=3 format=1]

[ext_resource path="res://scripts/ballon.gd" type="Script" id=1]
[ext_resource path="res://sprites/tileset/paper-dialog.png" type="Texture" id=2]

[node name="ballon" type="Node2D"]

transform/scale = Vector2( 0.15, 0.15 )
script/script = ExtResource( 1 )
width = 333
height = 181

[node name="frame" type="Patch9Frame" parent="."]

focus/ignore_mouse = true
focus/stop_mouse = true
size_flags/horizontal = 2
size_flags/vertical = 2
margin/left = -166.0
margin/top = -90.0
margin/right = 167.0
margin/bottom = 91.0
texture = ExtResource( 2 )
patch_margin/left = 5
patch_margin/top = 5
patch_margin/right = 5
patch_margin/bottom = 5


