[gd_resource type="TileSet" load_steps=33 format=1]

[ext_resource path="res://sprites/tileset/main/Tiles/1.png" type="Texture" id=1]
[ext_resource path="res://sprites/tileset/main/Tiles/2.png" type="Texture" id=2]
[ext_resource path="res://sprites/tileset/main/Tiles/11.png" type="Texture" id=3]
[ext_resource path="res://sprites/tileset/main/Tiles/12.png" type="Texture" id=4]
[ext_resource path="res://sprites/tileset/main/Tiles/13.png" type="Texture" id=5]
[ext_resource path="res://sprites/tileset/main/Tiles/14.png" type="Texture" id=6]
[ext_resource path="res://sprites/tileset/main/Tiles/15.png" type="Texture" id=7]
[ext_resource path="res://sprites/tileset/main/Tiles/16.png" type="Texture" id=8]
[ext_resource path="res://sprites/tileset/main/Tiles/17.png" type="Texture" id=9]
[ext_resource path="res://sprites/tileset/main/Tiles/18.png" type="Texture" id=10]
[ext_resource path="res://sprites/tileset/main/Tiles/19.png" type="Texture" id=11]
[ext_resource path="res://sprites/tileset/main/Tiles/20.png" type="Texture" id=12]
[ext_resource path="res://sprites/tileset/main/Tiles/3.png" type="Texture" id=13]
[ext_resource path="res://sprites/tileset/main/Object/ArrowSign.png" type="Texture" id=14]
[ext_resource path="res://sprites/tileset/main/Object/ArrowSign_return.png" type="Texture" id=15]
[ext_resource path="res://sprites/tileset/main/Tiles/4.png" type="Texture" id=16]
[ext_resource path="res://sprites/tileset/main/Tiles/5.png" type="Texture" id=17]
[ext_resource path="res://sprites/tileset/main/Tiles/6.png" type="Texture" id=18]
[ext_resource path="res://sprites/tileset/main/Tiles/7.png" type="Texture" id=19]
[ext_resource path="res://sprites/tileset/main/Tiles/8.png" type="Texture" id=20]
[ext_resource path="res://sprites/tileset/main/Tiles/9.png" type="Texture" id=21]
[ext_resource path="res://sprites/tileset/main/Tiles/10.png" type="Texture" id=22]

[sub_resource type="RectangleShape2D" id=1]

custom_solver_bias = 0.0
extents = Vector2( 65.1576, 60.3618 )

[sub_resource type="ConvexPolygonShape2D" id=2]

custom_solver_bias = 0.0
points = Vector2Array( 0, 0, 128, 0, 128, 96, 104, 96, 48, 56 )

[sub_resource type="ConvexPolygonShape2D" id=3]

custom_solver_bias = 0.0
points = Vector2Array( 48, 56, 16, 56, 0, 32, 0, 0 )

[sub_resource type="ConvexPolygonShape2D" id=4]

custom_solver_bias = 0.0
points = Vector2Array( 48, 56, 104, 96, 56, 72 )

[sub_resource type="ConvexPolygonShape2D" id=5]

custom_solver_bias = 0.0
points = Vector2Array( 128, 0, 128, 96, 104, 88, 0, 0 )

[sub_resource type="ConvexPolygonShape2D" id=6]

custom_solver_bias = 0.0
points = Vector2Array( 0, 0, 104, 88, 64, 96, 40, 88 )

[sub_resource type="ConvexPolygonShape2D" id=7]

custom_solver_bias = 0.0
points = Vector2Array( 0, 0, 40, 88, 0, 96 )

[sub_resource type="ConvexPolygonShape2D" id=8]

custom_solver_bias = 0.0
points = Vector2Array( 0, 0, 128, 0, 128, 54.25, 80, 54.25 )

[sub_resource type="ConvexPolygonShape2D" id=9]

custom_solver_bias = 0.0
points = Vector2Array( 40, 93, 0, 93, 0, 0, 80, 54.25, 80, 69.75 )

[sub_resource type="RectangleShape2D" id=10]

custom_solver_bias = 0.0
extents = Vector2( 64, 64 )

[resource]

0/name = "sprite"
0/texture = ExtResource( 1 )
0/tex_offset = Vector2( 0, 0 )
0/modulate = Color( 1, 1, 1, 1 )
0/region = Rect2( 0, 0, 128, 128 )
0/occluder_offset = Vector2( 64, 64 )
0/navigation_offset = Vector2( 64, 64 )
0/shape_offset = Vector2( 64, 64 )
0/shapes = [ SubResource( 1 ) ]
0/one_way_collision_direction = Vector2( 0, 0 )
0/one_way_collision_max_depth = 0.0
1/name = "sprite1"
1/texture = ExtResource( 2 )
1/tex_offset = Vector2( 0, 0 )
1/modulate = Color( 1, 1, 1, 1 )
1/region = Rect2( 0, 0, 128, 128 )
1/occluder_offset = Vector2( 64, 64 )
1/navigation_offset = Vector2( 64, 64 )
1/shape_offset = Vector2( 64, 64 )
1/shapes = [ SubResource( 1 ) ]
1/one_way_collision_direction = Vector2( 0, 0 )
1/one_way_collision_max_depth = 0.0
2/name = "sprite2"
2/texture = ExtResource( 13 )
2/tex_offset = Vector2( 0, 0 )
2/modulate = Color( 1, 1, 1, 1 )
2/region = Rect2( 0, 0, 128, 128 )
2/occluder_offset = Vector2( 64, 64 )
2/navigation_offset = Vector2( 64, 64 )
2/shape_offset = Vector2( 64, 64 )
2/shapes = [ SubResource( 1 ) ]
2/one_way_collision_direction = Vector2( 0, 0 )
2/one_way_collision_max_depth = 0.0
3/name = "sprite3"
3/texture = ExtResource( 16 )
3/tex_offset = Vector2( 0, 0 )
3/modulate = Color( 1, 1, 1, 1 )
3/region = Rect2( 0, 0, 129, 129 )
3/occluder_offset = Vector2( 64.5, 64.5 )
3/navigation_offset = Vector2( 64.5, 64.5 )
3/shape_offset = Vector2( 64.5, 64.5 )
3/shapes = [ SubResource( 1 ) ]
3/one_way_collision_direction = Vector2( 0, 0 )
3/one_way_collision_max_depth = 0.0
4/name = "sprite4"
4/texture = ExtResource( 17 )
4/tex_offset = Vector2( 0, 0 )
4/modulate = Color( 1, 1, 1, 1 )
4/region = Rect2( 0, 0, 128, 128 )
4/occluder_offset = Vector2( 64, 64 )
4/navigation_offset = Vector2( 64, 64 )
4/shape_offset = Vector2( 64, 64 )
4/shapes = [ SubResource( 1 ) ]
4/one_way_collision_direction = Vector2( 0, 0 )
4/one_way_collision_max_depth = 0.0
5/name = "sprite5"
5/texture = ExtResource( 18 )
5/tex_offset = Vector2( 0, 0 )
5/modulate = Color( 1, 1, 1, 1 )
5/region = Rect2( 0, 0, 128, 128 )
5/occluder_offset = Vector2( 64, 64 )
5/navigation_offset = Vector2( 64, 64 )
5/shape_offset = Vector2( 64, 64 )
5/shapes = [ SubResource( 1 ) ]
5/one_way_collision_direction = Vector2( 0, 0 )
5/one_way_collision_max_depth = 0.0
6/name = "sprite6"
6/texture = ExtResource( 19 )
6/tex_offset = Vector2( 0, 0 )
6/modulate = Color( 1, 1, 1, 1 )
6/region = Rect2( 0, 0, 128, 128 )
6/occluder_offset = Vector2( 64, 64 )
6/navigation_offset = Vector2( 64, 64 )
6/shape_offset = Vector2( 64, 64 )
6/shapes = [ SubResource( 1 ) ]
6/one_way_collision_direction = Vector2( 0, 0 )
6/one_way_collision_max_depth = 0.0
7/name = "sprite7"
7/texture = ExtResource( 20 )
7/tex_offset = Vector2( 0, 0 )
7/modulate = Color( 1, 1, 1, 1 )
7/region = Rect2( 0, 0, 128, 128 )
7/occluder_offset = Vector2( 64, 64 )
7/navigation_offset = Vector2( 64, 64 )
7/shape_offset = Vector2( 64, 64 )
7/shapes = [ SubResource( 1 ) ]
7/one_way_collision_direction = Vector2( 0, 0 )
7/one_way_collision_max_depth = 0.0
8/name = "sprite8"
8/texture = ExtResource( 21 )
8/tex_offset = Vector2( 0, 0 )
8/modulate = Color( 1, 1, 1, 1 )
8/region = Rect2( 0, 0, 128, 128 )
8/occluder_offset = Vector2( 64, 64 )
8/navigation_offset = Vector2( 64, 64 )
8/shape_offset = Vector2( 64, 64 )
8/shapes = [ SubResource( 1 ) ]
8/one_way_collision_direction = Vector2( 0, 0 )
8/one_way_collision_max_depth = 0.0
9/name = "sprite9"
9/texture = ExtResource( 22 )
9/tex_offset = Vector2( 0, 0 )
9/modulate = Color( 1, 1, 1, 1 )
9/region = Rect2( 0, 0, 128, 128 )
9/occluder_offset = Vector2( 64, 64 )
9/navigation_offset = Vector2( 64, 64 )
9/shape_offset = Vector2( 64, 64 )
9/shapes = [ SubResource( 1 ) ]
9/one_way_collision_direction = Vector2( 0, 0 )
9/one_way_collision_max_depth = 0.0
10/name = "sprite10"
10/texture = ExtResource( 3 )
10/tex_offset = Vector2( 0, 0 )
10/modulate = Color( 1, 1, 1, 1 )
10/region = Rect2( 0, 0, 128, 128 )
10/occluder_offset = Vector2( 64, 64 )
10/navigation_offset = Vector2( 64, 64 )
10/shape_offset = Vector2( 64, 64 )
10/shapes = [ SubResource( 1 ) ]
10/one_way_collision_direction = Vector2( 0, 0 )
10/one_way_collision_max_depth = 0.0
11/name = "sprite11"
11/texture = ExtResource( 4 )
11/tex_offset = Vector2( 0, 0 )
11/modulate = Color( 1, 1, 1, 1 )
11/region = Rect2( 0, 0, 128, 128 )
11/occluder_offset = Vector2( 64, 64 )
11/navigation_offset = Vector2( 64, 64 )
11/shape_offset = Vector2( 64, 64 )
11/shapes = [ SubResource( 1 ) ]
11/one_way_collision_direction = Vector2( 0, 0 )
11/one_way_collision_max_depth = 0.0
12/name = "sprite12"
12/texture = ExtResource( 5 )
12/tex_offset = Vector2( 0, 0 )
12/modulate = Color( 1, 1, 1, 1 )
12/region = Rect2( 0, 0, 128, 93 )
12/occluder_offset = Vector2( 0, 0 )
12/navigation_offset = Vector2( 0, 0 )
12/shape_offset = Vector2( 0, 0 )
12/shapes = [ SubResource( 2 ), SubResource( 3 ), SubResource( 4 ) ]
12/one_way_collision_direction = Vector2( 0, 0 )
12/one_way_collision_max_depth = 0.0
13/name = "sprite13"
13/texture = ExtResource( 6 )
13/tex_offset = Vector2( 0, 0 )
13/modulate = Color( 1, 1, 1, 1 )
13/region = Rect2( 0, 0, 128, 93 )
13/occluder_offset = Vector2( 0, 0 )
13/navigation_offset = Vector2( 0, 0 )
13/shape_offset = Vector2( 0, 0 )
13/shapes = [ SubResource( 5 ), SubResource( 6 ), SubResource( 7 ) ]
13/one_way_collision_direction = Vector2( 0, 0 )
13/one_way_collision_max_depth = 0.0
14/name = "sprite14"
14/texture = ExtResource( 7 )
14/tex_offset = Vector2( 0, 0 )
14/modulate = Color( 1, 1, 1, 1 )
14/region = Rect2( 0, 0, 128, 93 )
14/occluder_offset = Vector2( 0, 0 )
14/navigation_offset = Vector2( 0, 0 )
14/shape_offset = Vector2( 0, 0 )
14/shapes = [ SubResource( 8 ), SubResource( 9 ) ]
14/one_way_collision_direction = Vector2( 0, 0 )
14/one_way_collision_max_depth = 0.0
15/name = "sprite15"
15/texture = ExtResource( 8 )
15/tex_offset = Vector2( 0, 0 )
15/modulate = Color( 1, 1, 1, 1 )
15/region = Rect2( 0, 0, 128, 128 )
15/occluder_offset = Vector2( 64, 64 )
15/navigation_offset = Vector2( 64, 64 )
15/shape_offset = Vector2( 64, 64 )
15/shapes = [ SubResource( 1 ) ]
15/one_way_collision_direction = Vector2( 0, 0 )
15/one_way_collision_max_depth = 0.0
16/name = "sprite16"
16/texture = ExtResource( 9 )
16/tex_offset = Vector2( 0, 0 )
16/modulate = Color( 1, 1, 1, 1 )
16/region = Rect2( 0, 0, 128, 99 )
16/occluder_offset = Vector2( 0, 0 )
16/navigation_offset = Vector2( 0, 0 )
16/shape_offset = Vector2( 0, 0 )
16/shapes = [  ]
16/one_way_collision_direction = Vector2( 0, 0 )
16/one_way_collision_max_depth = 0.0
17/name = "sprite17"
17/texture = ExtResource( 10 )
17/tex_offset = Vector2( 0, 0 )
17/modulate = Color( 1, 1, 1, 1 )
17/region = Rect2( 0, 0, 128, 128 )
17/occluder_offset = Vector2( 0, 0 )
17/navigation_offset = Vector2( 0, 0 )
17/shape_offset = Vector2( 0, 0 )
17/shapes = [  ]
17/one_way_collision_direction = Vector2( 0, 0 )
17/one_way_collision_max_depth = 0.0
18/name = "sprite18"
18/texture = ExtResource( 11 )
18/tex_offset = Vector2( 0, 0 )
18/modulate = Color( 1, 1, 1, 1 )
18/region = Rect2( 0, 0, 128, 128 )
18/occluder_offset = Vector2( 64, 64 )
18/navigation_offset = Vector2( 64, 64 )
18/shape_offset = Vector2( 64, 64 )
18/shapes = [ SubResource( 10 ) ]
18/one_way_collision_direction = Vector2( 0, 0 )
18/one_way_collision_max_depth = 0.0
19/name = "sprite19"
19/texture = ExtResource( 12 )
19/tex_offset = Vector2( 0, 0 )
19/modulate = Color( 1, 1, 1, 1 )
19/region = Rect2( 0, 0, 128, 128 )
19/occluder_offset = Vector2( 64, 64 )
19/navigation_offset = Vector2( 64, 64 )
19/shape_offset = Vector2( 64, 64 )
19/shapes = [ SubResource( 10 ) ]
19/one_way_collision_direction = Vector2( 0, 0 )
19/one_way_collision_max_depth = 0.0
20/name = "sprite20"
20/texture = ExtResource( 14 )
20/tex_offset = Vector2( 0, 0 )
20/modulate = Color( 1, 1, 1, 1 )
20/region = Rect2( 0, 0, 86, 87 )
20/occluder_offset = Vector2( 43, 43.5 )
20/navigation_offset = Vector2( 43, 43.5 )
20/shape_offset = Vector2( 0, 0 )
20/shapes = [  ]
20/one_way_collision_direction = Vector2( 0, 0 )
20/one_way_collision_max_depth = 0.0
21/name = "sprite21"
21/texture = ExtResource( 15 )
21/tex_offset = Vector2( 0, 0 )
21/modulate = Color( 1, 1, 1, 1 )
21/region = Rect2( 0, 0, 86, 87 )
21/occluder_offset = Vector2( 43, 43.5 )
21/navigation_offset = Vector2( 43, 43.5 )
21/shape_offset = Vector2( 0, 0 )
21/shapes = [  ]
21/one_way_collision_direction = Vector2( 0, 0 )
21/one_way_collision_max_depth = 0.0

